uart/icarus_top.vcd
$date
	Mon Aug  5 19:46:20 2024
$end
$version
	Icarus Verilog
$end
$timescale
	1ns
$end
$scope module icarus_top $end
$var reg 1 ! clock $end
$var reg 1 " reset $end
$scope module top $end
$var wire 1 ! clock $end
$var wire 1 " reset $end
$var wire 1 # tx_out $end
$var wire 1 $ rx_out_valid $end
$var wire 1 % rx_out_ready $end
$var wire 8 & rx_out [7:0] $end
$var wire 1 ' msg_out_valid $end
$var wire 1 ( msg_out_ready $end
$var wire 8 ) msg_out [7:0] $end
$var parameter 32 * clocks_per_bit $end
$scope module msg $end
$var wire 1 ! _clock $end
$var wire 1 " _reset $end
$var wire 1 ' _out_valid $end
$var wire 1 ( _out_ready $end
$var wire 8 + _out [7:0] $end
$var parameter 32 , delay_max $end
$var reg 3 - cursor [2:0] $end
$var reg 3 . cursor_ [2:0] $end
$var reg 8 / delay [7:0] $end
$var reg 8 0 delay_ [7:0] $end
$upscope $end
$scope module rx $end
$var wire 1 ! _clock $end
$var wire 1 " _reset $end
$var wire 1 % _out_ready $end
$var wire 1 # _in $end
$var parameter 32 1 bits_per_byte $end
$var parameter 8 2 clocks_per_bit $end
$var parameter 33 3 count_max $end
$var parameter 8 4 delay_max $end
$var parameter 32 5 delay_mid $end
$var reg 8 6 _out [7:0] $end
$var reg 1 $ _out_valid $end
$var reg 8 7 count [7:0] $end
$var reg 8 8 count_ [7:0] $end
$var reg 8 9 delay [7:0] $end
$var reg 8 : delay_ [7:0] $end
$var reg 8 ; shift [7:0] $end
$var reg 8 < shift_ [7:0] $end
$upscope $end
$scope module sink $end
$var wire 1 ! _clock $end
$var wire 8 = _in [7:0] $end
$var wire 1 $ _in_valid $end
$var wire 1 " _reset $end
$var reg 1 % _in_ready $end
$var reg 8 > data [7:0] $end
$upscope $end
$scope module tx $end
$var wire 1 ! _clock $end
$var wire 8 ? _in [7:0] $end
$var wire 1 ' _in_valid $end
$var wire 1 " _reset $end
$var parameter 32 @ bits_per_byte $end
$var parameter 32 A clocks_per_bit $end
$var parameter 33 B count_max $end
$var parameter 33 C delay_max $end
$var parameter 32 D delay_mid $end
$var reg 1 ( _in_ready $end
$var reg 1 # _out $end
$var reg 8 E tx_count [7:0] $end
$var reg 8 F tx_count_ [7:0] $end
$var reg 8 G tx_delay [7:0] $end
$var reg 8 H tx_delay_ [7:0] $end
$var reg 10 I tx_shift [9:0] $end
$var reg 10 J tx_shift_ [9:0] $end
$upscope $end
$upscope $end
$upscope $end
$enddefinitions $end
$comment Show the parameter values. $end
$dumpall
b1 D
b10 C
b1001 B
b11 A
b1010 @
b1 5
b10 4
b1001 3
b11 2
b1010 1
b10100 ,
b11 *
$end
#0
$dumpvars
b1111111111 J
b1111111111 I
b10 H
b10 G
b1001 F
b1001 E
b0 ?
b0 >
b0 =
b0 <
b0 ;
b10 :
b10 9
b1001 8
b1001 7
b0 6
b10100 0
b10100 /
b0 .
b0 -
b0 +
b0 )
0(
0'
b0 &
0%
0$
1#
1"
1!
$end
#5
0!
#10
1!
#15
0!
#20
1!
#25
0!
#30
1!
#35
0!
#40
1!
#45
0!
#50
1!
#55
0!
#60
1!
#65
0!
#70
1!
#75
0!
#80
1!
#85
0!
#90
1!
#95
b10011 0
1%
1(
0!
0"
#100
b10010 0
b10011 /
1!
#105
0!
#110
b10001 0
b10010 /
1!
#115
0!
#120
b10000 0
b10001 /
1!
#125
0!
#130
b1111 0
b10000 /
1!
#135
0!
#140
b1110 0
b1111 /
1!
#145
0!
#150
b1101 0
b1110 /
1!
#155
0!
#160
b1100 0
b1101 /
1!
#165
0!
#170
b1011 0
b1100 /
1!
#175
0!
#180
b1010 0
b1011 /
1!
#185
0!
#190
b1001 0
b1010 /
1!
#195
0!
#200
b1000 0
b1001 /
1!
#205
0!
#210
b111 0
b1000 /
1!
#215
0!
#220
b110 0
b111 /
1!
#225
0!
#230
b101 0
b110 /
1!
#235
0!
#240
b100 0
b101 /
1!
#245
0!
#250
b11 0
b100 /
1!
#255
0!
#260
b10 0
b11 /
1!
#265
0!
#270
b1 0
b10 /
1!
#275
0!
#280
b0 0
b1 /
1!
#285
0!
#290
b1010000 )
b1010000 +
b1010000 ?
b1 .
b1010100000 J
b0 F
b0 H
1(
1'
b0 /
1!
#295
0!
#300
b1101001 )
b1101001 +
b1101001 ?
b0 8
b0 :
b1 H
0(
0#
b1 .
b1010100000 I
b0 E
b0 G
b1 -
1!
#305
0!
#310
b10 H
b1 :
b1 G
b0 7
b0 9
1!
#315
0!
#320
b10 :
b1101010000 J
b1 F
b0 H
b1 9
b10 G
1!
#325
0!
#330
b1 H
b1 8
b0 :
b1101010000 I
b1 E
b0 G
b10 9
1!
#335
0!
#340
b1 :
b10 H
b1 7
b0 9
b1 G
1!
#345
0!
#350
b1110101000 J
b10 F
b0 H
b10 :
b10 G
b1 9
1!
#355
0!
#360
b10 8
b0 :
b1 H
b10 9
b1110101000 I
b10 E
b0 G
1!
#365
0!
#370
b10 H
b1 :
b1 G
b10 7
b0 9
1!
#375
0!
#380
b10 :
b1111010100 J
b11 F
b0 H
b1 9
b10 G
1!
#385
0!
#390
b1 H
b11 8
b0 :
b1111010100 I
b11 E
b0 G
b10 9
1!
#395
0!
#400
b1 :
b10 H
b11 7
b0 9
b1 G
1!
#405
0!
#410
b1111101010 J
b100 F
b0 H
b10 :
b10 G
b1 9
1!
#415
0!
#420
b100 8
b0 :
b1 H
b10 9
b1111101010 I
b100 E
b0 G
1!
#425
0!
#430
b10 H
b1 :
b1 G
b100 7
b0 9
1!
#435
0!
#440
b10 :
b1111110101 J
b101 F
b0 H
b1 9
b10 G
1!
#445
0!
#450
b1 H
1#
b101 8
b0 :
b1111110101 I
b101 E
b0 G
b10 9
1!
#455
0!
#460
b10000000 <
b1 :
b10 H
b101 7
b0 9
b1 G
1!
#465
0!
#470
b1111111010 J
b110 F
b0 H
b10 :
b10 G
b10000000 ;
b1 9
1!
#475
0!
#480
b110 8
b0 :
b1 H
0#
b10 9
b1111111010 I
b110 E
b0 G
1!
#485
0!
#490
b10 H
b1000000 <
b1 :
b1 G
b110 7
b0 9
1!
#495
0!
#500
b10 :
b1111111101 J
b111 F
b0 H
b1000000 ;
b1 9
b10 G
1!
#505
0!
#510
b1 H
1#
b111 8
b0 :
b1111111101 I
b111 E
b0 G
b10 9
1!
#515
0!
#520
b10100000 <
b1 :
b10 H
b111 7
b0 9
b1 G
1!
#525
0!
#530
b1111111110 J
b1000 F
b0 H
b10 :
b10 G
b10100000 ;
b1 9
1!
#535
0!
#540
b1000 8
b0 :
b1 H
0#
b10 9
b1111111110 I
b1000 E
b0 G
1!
#545
0!
#550
b10 H
1$
b1010000 &
b1010000 6
b1010000 =
b1010000 <
b1 :
b1 G
b1000 7
b0 9
1!
#555
0!
#560
b10 :
0$
b0 &
b0 6
b0 =
b1111111111 J
b1001 F
b0 H
b1010000 >
b1010000 ;
b1 9
b10 G
1!
#565
0!
#570
b1 H
1#
b1001 8
b0 :
b1111111111 I
b1001 E
b0 G
b10 9
1!
#575
0!
#580
b10101000 <
b1 :
b10 H
b1001 7
b0 9
b1 G
1!
#585
0!
#590
b10 .
b1011010010 J
b0 F
b0 H
1(
b10 :
b10 G
b10101000 ;
b1 9
1!
#595
0!
#600
b1101110 )
b1101110 +
b1101110 ?
b0 8
b0 :
b1 H
0(
0#
b10 .
b10 9
b1011010010 I
b0 E
b0 G
b10 -
1!
#605
0!
#610
b10 H
b1010100 <
b1 :
b1 G
b0 7
b0 9
1!
#615
0!
#620
b10 :
b1101101001 J
b1 F
b0 H
b1010100 ;
b1 9
b10 G
1!
#625
0!
#630
b1 H
1#
b1 8
b0 :
b1101101001 I
b1 E
b0 G
b10 9
1!
#635
0!
#640
b10101010 <
b1 :
b10 H
b1 7
b0 9
b1 G
1!
#645
0!
#650
b1110110100 J
b10 F
b0 H
b10 :
b10 G
b10101010 ;
b1 9
1!
#655
0!
#660
b10 8
b0 :
b1 H
0#
b10 9
b1110110100 I
b10 E
b0 G
1!
#665
0!
#670
b10 H
b1010101 <
b1 :
b1 G
b10 7
b0 9
1!
#675
0!
#680
b10 :
b1111011010 J
b11 F
b0 H
b1010101 ;
b1 9
b10 G
1!
#685
0!
#690
b1 H
b11 8
b0 :
b1111011010 I
b11 E
b0 G
b10 9
1!
#695
0!
#700
b101010 <
b1 :
b10 H
b11 7
b0 9
b1 G
1!
#705
0!
#710
b1111101101 J
b100 F
b0 H
b10 :
b10 G
b101010 ;
b1 9
1!
#715
0!
#720
b100 8
b0 :
b1 H
1#
b10 9
b1111101101 I
b100 E
b0 G
1!
#725
0!
#730
b10 H
b10010101 <
b1 :
b1 G
b100 7
b0 9
1!
#735
0!
#740
b10 :
b1111110110 J
b101 F
b0 H
b10010101 ;
b1 9
b10 G
1!
#745
0!
#750
b1 H
0#
b101 8
b0 :
b1111110110 I
b101 E
b0 G
b10 9
1!
#755
0!
#760
b1001010 <
b1 :
b10 H
b101 7
b0 9
b1 G
1!
#765
0!
#770
b1111111011 J
b110 F
b0 H
b10 :
b10 G
b1001010 ;
b1 9
1!
#775
0!
#780
b110 8
b0 :
b1 H
1#
b10 9
b1111111011 I
b110 E
b0 G
1!
#785
0!
#790
b10 H
b10100101 <
b1 :
b1 G
b110 7
b0 9
1!
#795
0!
#800
b10 :
b1111111101 J
b111 F
b0 H
b10100101 ;
b1 9
b10 G
1!
#805
0!
#810
b1 H
b111 8
b0 :
b1111111101 I
b111 E
b0 G
b10 9
1!
#815
0!
#820
b11010010 <
b1 :
b10 H
b111 7
b0 9
b1 G
1!
#825
0!
#830
b1111111110 J
b1000 F
b0 H
b10 :
b10 G
b11010010 ;
b1 9
1!
#835
0!
#840
b1000 8
b0 :
b1 H
0#
b10 9
b1111111110 I
b1000 E
b0 G
1!
#845
0!
#850
b10 H
1$
b1101001 &
b1101001 6
b1101001 =
b1101001 <
b1 :
b1 G
b1000 7
b0 9
1!
#855
0!
#860
b10 :
0$
b0 &
b0 6
b0 =
b1111111111 J
b1001 F
b0 H
b1101001 >
b1101001 ;
b1 9
b10 G
1!
#865
0!
#870
b1 H
1#
b1001 8
b0 :
b1111111111 I
b1001 E
b0 G
b10 9
1!
#875
0!
#880
b10110100 <
b1 :
b10 H
b1001 7
b0 9
b1 G
1!
#885
0!
#890
b11 .
b1011011100 J
b0 F
b0 H
1(
b10 :
b10 G
b10110100 ;
b1 9
1!
#895
0!
#900
b1100111 )
b1100111 +
b1100111 ?
b0 8
b0 :
b1 H
0(
0#
b11 .
b10 9
b1011011100 I
b0 E
b0 G
b11 -
1!
#905
0!
#910
b10 H
b1011010 <
b1 :
b1 G
b0 7
b0 9
1!
#915
0!
#920
b10 :
b1101101110 J
b1 F
b0 H
b1011010 ;
b1 9
b10 G
1!
#925
0!
#930
b1 H
b1 8
b0 :
b1101101110 I
b1 E
b0 G
b10 9
1!
#935
0!
#940
b101101 <
b1 :
b10 H
b1 7
b0 9
b1 G
1!
#945
0!
#950
b1110110111 J
b10 F
b0 H
b10 :
b10 G
b101101 ;
b1 9
1!
#955
0!
#960
b10 8
b0 :
b1 H
1#
b10 9
b1110110111 I
b10 E
b0 G
1!
#965
0!
#970
b10 H
b10010110 <
b1 :
b1 G
b10 7
b0 9
1!
#975
0!
#980
b10 :
b1111011011 J
b11 F
b0 H
b10010110 ;
b1 9
b10 G
1!
#985
0!
#990
b1 H
b11 8
b0 :
b1111011011 I
b11 E
b0 G
b10 9
1!
#995
0!
#1000
b11001011 <
b1 :
b10 H
b11 7
b0 9
b1 G
1!
#1005
0!
#1010
b1111101101 J
b100 F
b0 H
b10 :
b10 G
b11001011 ;
b1 9
1!
#1015
0!
#1020
b100 8
b0 :
b1 H
b10 9
b1111101101 I
b100 E
b0 G
1!
#1025
0!
#1030
b10 H
b11100101 <
b1 :
b1 G
b100 7
b0 9
1!
#1035
0!
#1040
b10 :
b1111110110 J
b101 F
b0 H
b11100101 ;
b1 9
b10 G
1!
#1045
0!
#1050
b1 H
0#
b101 8
b0 :
b1111110110 I
b101 E
b0 G
b10 9
1!
#1055
0!
#1060
b1110010 <
b1 :
b10 H
b101 7
b0 9
b1 G
1!
#1065
0!
#1070
b1111111011 J
b110 F
b0 H
b10 :
b10 G
b1110010 ;
b1 9
1!
#1075
0!
#1080
b110 8
b0 :
b1 H
1#
b10 9
b1111111011 I
b110 E
b0 G
1!
#1085
0!
#1090
b10 H
b10111001 <
b1 :
b1 G
b110 7
b0 9
1!
#1095
0!
#1100
b10 :
b1111111101 J
b111 F
b0 H
b10111001 ;
b1 9
b10 G
1!
#1105
0!
#1110
b1 H
b111 8
b0 :
b1111111101 I
b111 E
b0 G
b10 9
1!
#1115
0!
#1120
b11011100 <
b1 :
b10 H
b111 7
b0 9
b1 G
1!
#1125
0!
#1130
b1111111110 J
b1000 F
b0 H
b10 :
b10 G
b11011100 ;
b1 9
1!
#1135
0!
#1140
b1000 8
b0 :
b1 H
0#
b10 9
b1111111110 I
b1000 E
b0 G
1!
#1145
0!
#1150
b10 H
1$
b1101110 &
b1101110 6
b1101110 =
b1101110 <
b1 :
b1 G
b1000 7
b0 9
1!
#1155
0!
#1160
b10 :
0$
b0 &
b0 6
b0 =
b1111111111 J
b1001 F
b0 H
b1101110 >
b1101110 ;
b1 9
b10 G
1!
#1165
0!
#1170
b1 H
1#
b1001 8
b0 :
b1111111111 I
b1001 E
b0 G
b10 9
1!
#1175
0!
#1180
b10110111 <
b1 :
b10 H
b1001 7
b0 9
b1 G
1!
#1185
0!
#1190
b100 .
b1011001110 J
b0 F
b0 H
1(
b10 :
b10 G
b10110111 ;
b1 9
1!
#1195
0!
#1200
b100001 )
b100001 +
b100001 ?
b0 8
b0 :
b1 H
0(
0#
b100 .
b10 9
b1011001110 I
b0 E
b0 G
b100 -
1!
#1205
0!
#1210
b10 H
b1011011 <
b1 :
b1 G
b0 7
b0 9
1!
#1215
0!
#1220
b10 :
b1101100111 J
b1 F
b0 H
b1011011 ;
b1 9
b10 G
1!
#1225
0!
#1230
b1 H
1#
b1 8
b0 :
b1101100111 I
b1 E
b0 G
b10 9
1!
#1235
0!
#1240
b10101101 <
b1 :
b10 H
b1 7
b0 9
b1 G
1!
#1245
0!
#1250
b1110110011 J
b10 F
b0 H
b10 :
b10 G
b10101101 ;
b1 9
1!
#1255
0!
#1260
b10 8
b0 :
b1 H
b10 9
b1110110011 I
b10 E
b0 G
1!
#1265
0!
#1270
b10 H
b11010110 <
b1 :
b1 G
b10 7
b0 9
1!
#1275
0!
#1280
b10 :
b1111011001 J
b11 F
b0 H
b11010110 ;
b1 9
b10 G
1!
#1285
0!
#1290
b1 H
b11 8
b0 :
b1111011001 I
b11 E
b0 G
b10 9
1!
#1295
0!
#1300
b11101011 <
b1 :
b10 H
b11 7
b0 9
b1 G
1!
#1305
0!
#1310
b1111101100 J
b100 F
b0 H
b10 :
b10 G
b11101011 ;
b1 9
1!
#1315
0!
#1320
b100 8
b0 :
b1 H
0#
b10 9
b1111101100 I
b100 E
b0 G
1!
#1325
0!
#1330
b10 H
b1110101 <
b1 :
b1 G
b100 7
b0 9
1!
#1335
0!
#1340
b10 :
b1111110110 J
b101 F
b0 H
b1110101 ;
b1 9
b10 G
1!
#1345
0!
#1350
b1 H
b101 8
b0 :
b1111110110 I
b101 E
b0 G
b10 9
1!
#1355
0!
#1360
b111010 <
b1 :
b10 H
b101 7
b0 9
b1 G
1!
#1365
0!
#1370
b1111111011 J
b110 F
b0 H
b10 :
b10 G
b111010 ;
b1 9
1!
#1375
0!
#1380
b110 8
b0 :
b1 H
1#
b10 9
b1111111011 I
b110 E
b0 G
1!
#1385
0!
#1390
b10 H
b10011101 <
b1 :
b1 G
b110 7
b0 9
1!
#1395
0!
#1400
b10 :
b1111111101 J
b111 F
b0 H
b10011101 ;
b1 9
b10 G
1!
#1405
0!
#1410
b1 H
b111 8
b0 :
b1111111101 I
b111 E
b0 G
b10 9
1!
#1415
0!
#1420
b11001110 <
b1 :
b10 H
b111 7
b0 9
b1 G
1!
#1425
0!
#1430
b1111111110 J
b1000 F
b0 H
b10 :
b10 G
b11001110 ;
b1 9
1!
#1435
0!
#1440
b1000 8
b0 :
b1 H
0#
b10 9
b1111111110 I
b1000 E
b0 G
1!
#1445
0!
#1450
b10 H
1$
b1100111 &
b1100111 6
b1100111 =
b1100111 <
b1 :
b1 G
b1000 7
b0 9
1!
#1455
0!
#1460
b10 :
0$
b0 &
b0 6
b0 =
b1111111111 J
b1001 F
b0 H
b1100111 >
b1100111 ;
b1 9
b10 G
1!
#1465
0!
#1470
b1 H
1#
b1001 8
b0 :
b1111111111 I
b1001 E
b0 G
b10 9
1!
#1475
0!
#1480
b10110011 <
b1 :
b10 H
b1001 7
b0 9
b1 G
1!
#1485
0!
#1490
b101 .
b1001000010 J
b0 F
b0 H
1(
b10 :
b10 G
b10110011 ;
b1 9
1!
#1495
0!
#1500
b1010 )
b1010 +
b1010 ?
b0 8
b0 :
b1 H
0(
0#
b101 .
b0 0
b10 9
b1001000010 I
b0 E
b0 G
b101 -
1!
#1505
0!
#1510
b10 H
b1011001 <
b1 :
b1 G
b0 7
b0 9
1!
#1515
0!
#1520
b10 :
b1100100001 J
b1 F
b0 H
b1011001 ;
b1 9
b10 G
1!
#1525
0!
#1530
b1 H
1#
b1 8
b0 :
b1100100001 I
b1 E
b0 G
b10 9
1!
#1535
0!
#1540
b10101100 <
b1 :
b10 H
b1 7
b0 9
b1 G
1!
#1545
0!
#1550
b1110010000 J
b10 F
b0 H
b10 :
b10 G
b10101100 ;
b1 9
1!
#1555
0!
#1560
b10 8
b0 :
b1 H
0#
b10 9
b1110010000 I
b10 E
b0 G
1!
#1565
0!
#1570
b10 H
b1010110 <
b1 :
b1 G
b10 7
b0 9
1!
#1575
0!
#1580
b10 :
b1111001000 J
b11 F
b0 H
b1010110 ;
b1 9
b10 G
1!
#1585
0!
#1590
b1 H
b11 8
b0 :
b1111001000 I
b11 E
b0 G
b10 9
1!
#1595
0!
#1600
b101011 <
b1 :
b10 H
b11 7
b0 9
b1 G
1!
#1605
0!
#1610
b1111100100 J
b100 F
b0 H
b10 :
b10 G
b101011 ;
b1 9
1!
#1615
0!
#1620
b100 8
b0 :
b1 H
b10 9
b1111100100 I
b100 E
b0 G
1!
#1625
0!
#1630
b10 H
b10101 <
b1 :
b1 G
b100 7
b0 9
1!
#1635
0!
#1640
b10 :
b1111110010 J
b101 F
b0 H
b10101 ;
b1 9
b10 G
1!
#1645
0!
#1650
b1 H
b101 8
b0 :
b1111110010 I
b101 E
b0 G
b10 9
1!
#1655
0!
#1660
b1010 <
b1 :
b10 H
b101 7
b0 9
b1 G
1!
#1665
0!
#1670
b1111111001 J
b110 F
b0 H
b10 :
b10 G
b1010 ;
b1 9
1!
#1675
0!
#1680
b110 8
b0 :
b1 H
1#
b10 9
b1111111001 I
b110 E
b0 G
1!
#1685
0!
#1690
b10 H
b10000101 <
b1 :
b1 G
b110 7
b0 9
1!
#1695
0!
#1700
b10 :
b1111111100 J
b111 F
b0 H
b10000101 ;
b1 9
b10 G
1!
#1705
0!
#1710
b1 H
0#
b111 8
b0 :
b1111111100 I
b111 E
b0 G
b10 9
1!
#1715
0!
#1720
b1000010 <
b1 :
b10 H
b111 7
b0 9
b1 G
1!
#1725
0!
#1730
b1111111110 J
b1000 F
b0 H
b10 :
b10 G
b1000010 ;
b1 9
1!
#1735
0!
#1740
b1000 8
b0 :
b1 H
b10 9
b1111111110 I
b1000 E
b0 G
1!
#1745
0!
#1750
b10 H
1$
b100001 &
b100001 6
b100001 =
b100001 <
b1 :
b1 G
b1000 7
b0 9
1!
#1755
0!
#1760
b10 :
0$
b0 &
b0 6
b0 =
b1111111111 J
b1001 F
b0 H
b100001 >
b100001 ;
b1 9
b10 G
1!
#1765
0!
#1770
b1 H
1#
b1001 8
b0 :
b1111111111 I
b1001 E
b0 G
b10 9
1!
#1775
0!
#1780
b10010000 <
b1 :
b10 H
b1001 7
b0 9
b1 G
1!
#1785
0!
#1790
b0 .
b10011 0
b1000010100 J
b0 F
b0 H
1(
b10 :
b10 G
b10010000 ;
b1 9
1!
#1795
0!
#1800
b0 )
b0 +
b0 ?
0'
b0 8
b0 :
b1 H
0(
0#
b10010 0
b10 9
b1000010100 I
b0 E
b0 G
b0 -
b10011 /
1!
#1805
0!
#1810
b10001 0
b10 H
b1001000 <
b1 :
b10010 /
b1 G
b0 7
b0 9
1!
#1815
0!
#1820
b10 :
b1100001010 J
b1 F
b0 H
b10000 0
b1001000 ;
b1 9
b10 G
b10001 /
1!
#1825
0!
#1830
b1111 0
b1 H
b1 8
b0 :
b10000 /
b1100001010 I
b1 E
b0 G
b10 9
1!
#1835
0!
#1840
b100100 <
b1 :
b10 H
b1110 0
b1 7
b0 9
b1 G
b1111 /
1!
#1845
0!
#1850
b1101 0
b1110000101 J
b10 F
b0 H
b10 :
b1110 /
b10 G
b100100 ;
b1 9
1!
#1855
0!
#1860
b10 8
b0 :
b1 H
1#
b1100 0
b10 9
b1110000101 I
b10 E
b0 G
b1101 /
1!
#1865
0!
#1870
b1011 0
b10 H
b10010010 <
b1 :
b1100 /
b1 G
b10 7
b0 9
1!
#1875
0!
#1880
b10 :
b1111000010 J
b11 F
b0 H
b1010 0
b10010010 ;
b1 9
b10 G
b1011 /
1!
#1885
0!
#1890
b1001 0
b1 H
0#
b11 8
b0 :
b1010 /
b1111000010 I
b11 E
b0 G
b10 9
1!
#1895
0!
#1900
b1001001 <
b1 :
b10 H
b1000 0
b11 7
b0 9
b1 G
b1001 /
1!
#1905
0!
#1910
b111 0
b1111100001 J
b100 F
b0 H
b10 :
b1000 /
b10 G
b1001001 ;
b1 9
1!
#1915
0!
#1920
b100 8
b0 :
b1 H
1#
b110 0
b10 9
b1111100001 I
b100 E
b0 G
b111 /
1!
#1925
0!
#1930
b101 0
b10 H
b10100100 <
b1 :
b110 /
b1 G
b100 7
b0 9
1!
#1935
0!
#1940
b10 :
b1111110000 J
b101 F
b0 H
b100 0
b10100100 ;
b1 9
b10 G
b101 /
1!
#1945
0!
#1950
b11 0
b1 H
0#
b101 8
b0 :
b100 /
b1111110000 I
b101 E
b0 G
b10 9
1!
#1955
0!
#1960
b1010010 <
b1 :
b10 H
b10 0
b101 7
b0 9
b1 G
b11 /
1!
#1965
0!
#1970
b1 0
b1111111000 J
b110 F
b0 H
b10 :
b10 /
b10 G
b1010010 ;
b1 9
1!
#1975
0!
#1980
b110 8
b0 :
b1 H
b0 0
b10 9
b1111111000 I
b110 E
b0 G
b1 /
1!
#1985
0!
#1990
b1010000 )
b1010000 +
b1010000 ?
1'
b10 H
b101001 <
b1 :
b0 /
b1 G
b110 7
b0 9
1!
#1995
0!
#2000
b10 :
b1111111100 J
b111 F
b0 H
b101001 ;
b1 9
b10 G
1!
#2005
0!
#2010
b1 H
b111 8
b0 :
b1111111100 I
b111 E
b0 G
b10 9
1!
#2015
0!
#2020
b10100 <
b1 :
b10 H
b111 7
b0 9
b1 G
1!
#2025
0!
#2030
b1111111110 J
b1000 F
b0 H
b10 :
b10 G
b10100 ;
b1 9
1!
#2035
0!
#2040
b1000 8
b0 :
b1 H
b10 9
b1111111110 I
b1000 E
b0 G
1!
#2045
0!
#2050
b10 H
1$
b1010 &
b1010 6
b1010 =
b1010 <
b1 :
b1 G
b1000 7
b0 9
1!
#2055
0!
#2060
b10 :
0$
b0 &
b0 6
b0 =
b1111111111 J
b1001 F
b0 H
b1010 >
b1010 ;
b1 9
b10 G
1!
#2065
0!
#2070
b1 H
1#
b1001 8
b0 :
b1111111111 I
b1001 E
b0 G
b10 9
1!
#2075
0!
#2080
b10000101 <
b1 :
b10 H
b1001 7
b0 9
b1 G
1!
#2085
0!
#2090
b1 .
b1010100000 J
b0 F
b0 H
1(
b10 :
b10 G
b10000101 ;
b1 9
1!
#2095
0!
#2100
b1101001 )
b1101001 +
b1101001 ?
b0 8
b0 :
b1 H
0(
0#
b1 .
b10 9
b1010100000 I
b0 E
b0 G
b1 -
1!
#2105
0!
#2110
b10 H
b1000010 <
b1 :
b1 G
b0 7
b0 9
1!
#2115
0!
#2120
b10 :
b1101010000 J
b1 F
b0 H
b1000010 ;
b1 9
b10 G
1!
#2125
0!
#2130
b1 H
b1 8
b0 :
b1101010000 I
b1 E
b0 G
b10 9
1!
#2135
0!
#2140
b100001 <
b1 :
b10 H
b1 7
b0 9
b1 G
1!
#2145
0!
#2150
b1110101000 J
b10 F
b0 H
b10 :
b10 G
b100001 ;
b1 9
1!
#2155
0!
#2160
b10 8
b0 :
b1 H
b10 9
b1110101000 I
b10 E
b0 G
1!
#2165
0!
#2170
b10 H
b10000 <
b1 :
b1 G
b10 7
b0 9
1!
#2175
0!
#2180
b10 :
b1111010100 J
b11 F
b0 H
b10000 ;
b1 9
b10 G
1!
#2185
0!
#2190
b1 H
b11 8
b0 :
b1111010100 I
b11 E
b0 G
b10 9
1!
#2195
0!
#2200
b1000 <
b1 :
b10 H
b11 7
b0 9
b1 G
1!
#2205
0!
#2210
b1111101010 J
b100 F
b0 H
b10 :
b10 G
b1000 ;
b1 9
1!
#2215
0!
#2220
b100 8
b0 :
b1 H
b10 9
b1111101010 I
b100 E
b0 G
1!
#2225
0!
#2230
b10 H
b100 <
b1 :
b1 G
b100 7
b0 9
1!
#2235
0!
#2240
b10 :
b1111110101 J
b101 F
b0 H
b100 ;
b1 9
b10 G
1!
#2245
0!
#2250
b1 H
1#
b101 8
b0 :
b1111110101 I
b101 E
b0 G
b10 9
1!
#2255
0!
#2260
b10000010 <
b1 :
b10 H
b101 7
b0 9
b1 G
1!
#2265
0!
#2270
b1111111010 J
b110 F
b0 H
b10 :
b10 G
b10000010 ;
b1 9
1!
#2275
0!
#2280
b110 8
b0 :
b1 H
0#
b10 9
b1111111010 I
b110 E
b0 G
1!
#2285
0!
#2290
b10 H
b1000001 <
b1 :
b1 G
b110 7
b0 9
1!
#2295
0!
#2300
b10 :
b1111111101 J
b111 F
b0 H
b1000001 ;
b1 9
b10 G
1!
#2305
0!
#2310
b1 H
1#
b111 8
b0 :
b1111111101 I
b111 E
b0 G
b10 9
1!
#2315
0!
#2320
b10100000 <
b1 :
b10 H
b111 7
b0 9
b1 G
1!
#2325
0!
#2330
b1111111110 J
b1000 F
b0 H
b10 :
b10 G
b10100000 ;
b1 9
1!
#2335
0!
#2340
b1000 8
b0 :
b1 H
0#
b10 9
b1111111110 I
b1000 E
b0 G
1!
#2345
0!
#2350
b10 H
1$
b1010000 &
b1010000 6
b1010000 =
b1010000 <
b1 :
b1 G
b1000 7
b0 9
1!
#2355
0!
#2360
b10 :
0$
b0 &
b0 6
b0 =
b1111111111 J
b1001 F
b0 H
b1010000 >
b1010000 ;
b1 9
b10 G
1!
#2365
0!
#2370
b1 H
1#
b1001 8
b0 :
b1111111111 I
b1001 E
b0 G
b10 9
1!
#2375
0!
#2380
b10101000 <
b1 :
b10 H
b1001 7
b0 9
b1 G
1!
#2385
0!
#2390
b10 .
b1011010010 J
b0 F
b0 H
1(
b10 :
b10 G
b10101000 ;
b1 9
1!
#2395
0!
#2400
b1101110 )
b1101110 +
b1101110 ?
b0 8
b0 :
b1 H
0(
0#
b10 .
b10 9
b1011010010 I
b0 E
b0 G
b10 -
1!
#2405
0!
#2410
b10 H
b1010100 <
b1 :
b1 G
b0 7
b0 9
1!
#2415
0!
#2420
b10 :
b1101101001 J
b1 F
b0 H
b1010100 ;
b1 9
b10 G
1!
#2425
0!
#2430
b1 H
1#
b1 8
b0 :
b1101101001 I
b1 E
b0 G
b10 9
1!
#2435
0!
#2440
b10101010 <
b1 :
b10 H
b1 7
b0 9
b1 G
1!
#2445
0!
#2450
b1110110100 J
b10 F
b0 H
b10 :
b10 G
b10101010 ;
b1 9
1!
#2455
0!
#2460
b10 8
b0 :
b1 H
0#
b10 9
b1110110100 I
b10 E
b0 G
1!
#2465
0!
#2470
b10 H
b1010101 <
b1 :
b1 G
b10 7
b0 9
1!
#2475
0!
#2480
b10 :
b1111011010 J
b11 F
b0 H
b1010101 ;
b1 9
b10 G
1!
#2485
0!
#2490
b1 H
b11 8
b0 :
b1111011010 I
b11 E
b0 G
b10 9
1!
#2495
0!
#2500
b101010 <
b1 :
b10 H
b11 7
b0 9
b1 G
1!
#2505
0!
#2510
b1111101101 J
b100 F
b0 H
b10 :
b10 G
b101010 ;
b1 9
1!
#2515
0!
#2520
b100 8
b0 :
b1 H
1#
b10 9
b1111101101 I
b100 E
b0 G
1!
#2525
0!
#2530
b10 H
b10010101 <
b1 :
b1 G
b100 7
b0 9
1!
#2535
0!
#2540
b10 :
b1111110110 J
b101 F
b0 H
b10010101 ;
b1 9
b10 G
1!
#2545
0!
#2550
b1 H
0#
b101 8
b0 :
b1111110110 I
b101 E
b0 G
b10 9
1!
#2555
0!
#2560
b1001010 <
b1 :
b10 H
b101 7
b0 9
b1 G
1!
#2565
0!
#2570
b1111111011 J
b110 F
b0 H
b10 :
b10 G
b1001010 ;
b1 9
1!
#2575
0!
#2580
b110 8
b0 :
b1 H
1#
b10 9
b1111111011 I
b110 E
b0 G
1!
#2585
0!
#2590
b10 H
b10100101 <
b1 :
b1 G
b110 7
b0 9
1!
#2595
0!
#2600
b10 :
b1111111101 J
b111 F
b0 H
b10100101 ;
b1 9
b10 G
1!
#2605
0!
#2610
b1 H
b111 8
b0 :
b1111111101 I
b111 E
b0 G
b10 9
1!
#2615
0!
#2620
b11010010 <
b1 :
b10 H
b111 7
b0 9
b1 G
1!
#2625
0!
#2630
b1111111110 J
b1000 F
b0 H
b10 :
b10 G
b11010010 ;
b1 9
1!
#2635
0!
